{
  "project_info": {
    "project_number": "165155486422",
    "project_id": "nisbat-ef08d",
    "storage_bucket": "nisbat-ef08d.appspot.com"
  },
  "client": [
    {
      "client_info": {
        "mobilesdk_app_id": "1:165155486422:android:adb2d88432745f9258a777",
        "android_client_info": {
          "package_name": "com.app.nisbat"
        }
      },
      "oauth_client": [
        {
          "client_id": "165155486422-kpd1k4fls0jascs6v0h1detfp7os2t90.apps.googleusercontent.com",
          "client_type": 1,
          "android_info": {
            "package_name": "com.app.nisbat",
            "certificate_hash": "c880867fb97f2717e3e1763f157f8f1070b2fcf6"
          }
        },
        {
          "client_id": "165155486422-t1626tjeisir122s7b676hbk4sjbv46b.apps.googleusercontent.com",
          "client_type": 3
        }
      ],
      "api_key": [
        {
          "current_key": "AIzaSyD6UIbQmr6uLyrAGSfRlE1-MbtVUxWRvME"
        }
      ],
      "services": {
        "appinvite_service": {
          "other_platform_oauth_client": [
            {
              "client_id": "165155486422-t1626tjeisir122s7b676hbk4sjbv46b.apps.googleusercontent.com",
              "client_type": 3
            }
          ]
        }
      }
    }
  ],
  "configuration_version": "1"
}